<svg width="40" height="40" viewBox="0 0 40 40" fill="none" xmlns="http://www.w3.org/2000/svg">
<rect width="40" height="40" rx="20" fill="#FFC14D"/>
<rect x="11" y="13" width="18" height="2" rx="1" fill="black" fill-opacity="0.87"/>
<rect x="11" y="25" width="18" height="2" rx="1" fill="black" fill-opacity="0.87"/>
<rect x="11" y="19" width="18" height="2" rx="1" fill="black" fill-opacity="0.87"/>
</svg>
