<?xml version="1.0" encoding="utf-8"?>
<!-- Generator: Adobe Illustrator 23.0.1, SVG Export Plug-In . SVG Version: 6.00 Build 0)  -->
<svg version="1.1" xmlns="http://www.w3.org/2000/svg" xmlns:xlink="http://www.w3.org/1999/xlink" x="0px" y="0px"
	 viewBox="0 0 61 139" enable-background="new 0 0 61 139" xml:space="preserve">
<g id="Rectangle_2_1_" enable-background="new    ">
	<g>
		<rect x="1" y="1" fill="#5053AB" width="59" height="137"/>
		<path fill="#7581CE" d="M59,2v135H2V2H59 M61,0H0v139h61V0L61,0z"/>
	</g>
</g>
<g id="Shape_1_1_" enable-background="new    ">
	<polygon fill="#7581CE" points="59.894,1.197 58.985,0.814 30.516,68.233 2.047,0.814 1.139,1.197 29.981,69.5 1.139,137.803 
		2.047,138.186 30.516,70.767 58.985,138.186 59.894,137.803 31.051,69.5 	"/>
</g>
<g id="Rectangle_3_1_" enable-background="new    ">
	<rect x="29" y="9" fill="#F4F6F8" width="27" height="15"/>
</g>
<g id="Rectangle_4_1_">
	<rect x="31" y="11" fill="#021F4B" width="23" height="2"/>
	<rect x="31" y="14" fill="#021F4B" width="23" height="5"/>
	<rect x="31" y="20" fill="#021F4B" width="13" height="2"/>
</g>
</svg>
