<?xml version="1.0" encoding="utf-8"?>
<!-- Generator: Adobe Illustrator 23.0.1, SVG Export Plug-In . SVG Version: 6.00 Build 0)  -->
<svg version="1.1" id="Layer_1" xmlns="http://www.w3.org/2000/svg" xmlns:xlink="http://www.w3.org/1999/xlink" x="0px" y="0px"
	 viewBox="0 0 18 18" style="enable-background:new 0 0 18 18;" xml:space="preserve">
<style type="text/css">
	.st0{fill:#7581CE;}
	.st1{fill:#5053AB;}
</style>
<path class="st0" d="M3.6,7.8c1.8,3.3,3,4.5,6.6,6.6S18,17,18,17c0,0.5-0.5,1-1,1C7.6,18,0,10.4,0,1c0-0.5,0.5-1,1-1
	C1,0,1.8,4.5,3.6,7.8z"/>
<g>
	<path class="st1" d="M5.8,5.6c0.3-0.3,0.4-0.7,0.3-1C5.7,3.4,5.5,2.3,5.5,1c0-0.5-0.4-1-1-1H1c0.6,4,2.6,7.8,2.6,7.8L5.8,5.6z"/>
	<path class="st1" d="M17,12.6c-1.3,0-2.5-0.2-3.6-0.6c-0.3-0.2-0.7-0.1-1,0.2l-2.2,2.2C13.3,16.5,18,17,18,17v-3.4
		C18,13,17.5,12.6,17,12.6z"/>
</g>
</svg>
