<?xml version="1.0" encoding="utf-8"?>
<!-- Generator: Adobe Illustrator 23.0.1, SVG Export Plug-In . SVG Version: 6.00 Build 0)  -->
<svg version="1.1" xmlns="http://www.w3.org/2000/svg" xmlns:xlink="http://www.w3.org/1999/xlink" x="0px" y="0px"
	 viewBox="0 0 606 560.376" enable-background="new 0 0 606 560.376" xml:space="preserve">
<g id="fascade">
	<polygon fill-rule="evenodd" clip-rule="evenodd" fill="#DEE4F5" points="542.965,80.038 144.83,80.038 144.83,19.06 80.038,19.06 
		80.038,80.038 63.034,80.038 62.887,560.376 543.113,560.376 	"/>
</g>
<g id="windows">
	<path fill-rule="evenodd" clip-rule="evenodd" fill="#FFFFFF" d="M102.687,114h30.333c3.141,0,5.688,2.546,5.688,5.687v79.625
		c0,3.141-2.546,5.688-5.688,5.688h-30.333c-3.141,0-5.688-2.546-5.688-5.688v-79.625C97,116.546,99.546,114,102.687,114z"/>
	<path fill-rule="evenodd" clip-rule="evenodd" fill="#FFFFFF" d="M151.979,114h30.333c3.141,0,5.687,2.546,5.687,5.687v24.35
		c0,3.141-2.546,5.688-5.687,5.688h-30.333c-3.141,0-5.687-2.546-5.687-5.688v-24.35C146.292,116.546,148.838,114,151.979,114z"/>
	<path fill-rule="evenodd" clip-rule="evenodd" fill="#FFFFFF" d="M151.979,156.242h30.333c3.141,0,5.687,2.546,5.687,5.687v37.383
		c0,3.141-2.546,5.688-5.687,5.688h-30.333c-3.141,0-5.687-2.546-5.687-5.688v-37.383
		C146.292,158.788,148.838,156.242,151.979,156.242z"/>
	<path fill-rule="evenodd" clip-rule="evenodd" fill="#FFFFFF" d="M262.688,114h30.333c3.141,0,5.688,2.546,5.688,5.687v79.625
		c0,3.141-2.546,5.688-5.688,5.688h-30.333c-3.141,0-5.688-2.546-5.688-5.688v-79.625C257,116.546,259.546,114,262.688,114z"/>
	<path fill-rule="evenodd" clip-rule="evenodd" fill="#FFFFFF" d="M311.979,114h30.333c3.141,0,5.688,2.546,5.688,5.687v24.35
		c0,3.141-2.546,5.688-5.688,5.688h-30.333c-3.141,0-5.687-2.546-5.687-5.688v-24.35C306.292,116.546,308.838,114,311.979,114z"/>
	<path fill-rule="evenodd" clip-rule="evenodd" fill="#FFFFFF" d="M311.979,156.242h30.333c3.141,0,5.688,2.546,5.688,5.687v37.383
		c0,3.141-2.546,5.688-5.688,5.688h-30.333c-3.141,0-5.687-2.546-5.687-5.688v-37.383
		C306.292,158.788,308.838,156.242,311.979,156.242z"/>
	<path fill-rule="evenodd" clip-rule="evenodd" fill="#FFFFFF" d="M422.688,114h30.333c3.141,0,5.688,2.546,5.688,5.687v79.625
		c0,3.141-2.546,5.688-5.688,5.688h-30.333c-3.141,0-5.688-2.546-5.688-5.688v-79.625C417,116.546,419.546,114,422.688,114z"/>
	<path fill-rule="evenodd" clip-rule="evenodd" fill="#FFFFFF" d="M471.979,114h30.333c3.141,0,5.688,2.546,5.688,5.687v24.35
		c0,3.141-2.546,5.688-5.688,5.688h-30.333c-3.141,0-5.687-2.546-5.687-5.688v-24.35C466.292,116.546,468.838,114,471.979,114z"/>
	<path fill-rule="evenodd" clip-rule="evenodd" fill="#FFFFFF" d="M471.979,156.242h30.333c3.141,0,5.688,2.546,5.688,5.687v37.383
		c0,3.141-2.546,5.688-5.688,5.688h-30.333c-3.141,0-5.687-2.546-5.687-5.688v-37.383
		C466.292,158.788,468.838,156.242,471.979,156.242z"/>
	<path fill-rule="evenodd" clip-rule="evenodd" fill="#FFFFFF" d="M102.687,274h30.333c3.141,0,5.688,2.546,5.688,5.688v79.625
		c0,3.141-2.546,5.688-5.688,5.688h-30.333c-3.141,0-5.688-2.546-5.688-5.688v-79.625C97,276.546,99.546,274,102.687,274z"/>
	<path fill-rule="evenodd" clip-rule="evenodd" fill="#FFFFFF" d="M151.979,274h30.333c3.141,0,5.687,2.546,5.687,5.688v24.35
		c0,3.141-2.546,5.687-5.687,5.687h-30.333c-3.141,0-5.687-2.546-5.687-5.687v-24.35C146.292,276.546,148.838,274,151.979,274z"/>
	<path fill-rule="evenodd" clip-rule="evenodd" fill="#FFFFFF" d="M151.979,316.242h30.333c3.141,0,5.687,2.546,5.687,5.688v37.383
		c0,3.141-2.546,5.688-5.687,5.688h-30.333c-3.141,0-5.687-2.546-5.687-5.688v-37.383
		C146.292,318.788,148.838,316.242,151.979,316.242z"/>
	<path fill-rule="evenodd" clip-rule="evenodd" fill="#FFFFFF" d="M262.688,274h30.333c3.141,0,5.688,2.546,5.688,5.688v79.625
		c0,3.141-2.546,5.688-5.688,5.688h-30.333c-3.141,0-5.688-2.546-5.688-5.688v-79.625C257,276.546,259.546,274,262.688,274z"/>
	<path fill-rule="evenodd" clip-rule="evenodd" fill="#FFFFFF" d="M311.979,274h30.333c3.141,0,5.688,2.546,5.688,5.688v24.35
		c0,3.141-2.546,5.687-5.688,5.687h-30.333c-3.141,0-5.687-2.546-5.687-5.687v-24.35C306.292,276.546,308.838,274,311.979,274z"/>
	<path fill-rule="evenodd" clip-rule="evenodd" fill="#FFFFFF" d="M311.979,316.242h30.333c3.141,0,5.688,2.546,5.688,5.688v37.383
		c0,3.141-2.546,5.688-5.688,5.688h-30.333c-3.141,0-5.687-2.546-5.687-5.688v-37.383
		C306.292,318.788,308.838,316.242,311.979,316.242z"/>
	<path fill-rule="evenodd" clip-rule="evenodd" fill="#FFFFFF" d="M422.688,274h30.333c3.141,0,5.688,2.546,5.688,5.688v79.625
		c0,3.141-2.546,5.688-5.688,5.688h-30.333c-3.141,0-5.688-2.546-5.688-5.688v-79.625C417,276.546,419.546,274,422.688,274z"/>
	<path fill-rule="evenodd" clip-rule="evenodd" fill="#FFFFFF" d="M471.979,316.242h30.333c3.141,0,5.688,2.546,5.688,5.688v37.383
		c0,3.141-2.546,5.688-5.688,5.688h-30.333c-3.141,0-5.687-2.546-5.687-5.688v-37.383
		C466.292,318.788,468.838,316.242,471.979,316.242z"/>
	<path fill-rule="evenodd" clip-rule="evenodd" fill="#FFFFFF" d="M102.687,435h30.333c3.141,0,5.688,2.546,5.688,5.687v79.625
		c0,3.141-2.546,5.688-5.688,5.688h-30.333c-3.141,0-5.688-2.546-5.688-5.688v-79.625C97,437.546,99.546,435,102.687,435z"/>
	<path fill-rule="evenodd" clip-rule="evenodd" fill="#FFFFFF" d="M151.979,435h30.333c3.141,0,5.687,2.546,5.687,5.687v24.35
		c0,3.141-2.546,5.688-5.687,5.688h-30.333c-3.141,0-5.687-2.546-5.687-5.688v-24.35C146.292,437.546,148.838,435,151.979,435z"/>
	<path fill-rule="evenodd" clip-rule="evenodd" fill="#FFFFFF" d="M151.979,477.242h30.333c3.141,0,5.687,2.546,5.687,5.688v37.383
		c0,3.141-2.546,5.688-5.687,5.688h-30.333c-3.141,0-5.687-2.546-5.687-5.688v-37.383
		C146.292,479.788,148.838,477.242,151.979,477.242z"/>
	<path fill-rule="evenodd" clip-rule="evenodd" fill="#FFFFFF" d="M263.687,435h30.333c3.141,0,5.688,2.546,5.688,5.687v79.625
		c0,3.141-2.546,5.688-5.688,5.688h-30.333c-3.141,0-5.687-2.546-5.687-5.688v-79.625C258,437.546,260.546,435,263.687,435z"/>
	<path fill-rule="evenodd" clip-rule="evenodd" fill="#FFFFFF" d="M312.979,435h30.333c3.141,0,5.688,2.546,5.688,5.687v24.35
		c0,3.141-2.546,5.688-5.688,5.688h-30.333c-3.141,0-5.687-2.546-5.687-5.688v-24.35C307.292,437.546,309.838,435,312.979,435z"/>
	<path fill-rule="evenodd" clip-rule="evenodd" fill="#FFFFFF" d="M312.979,477.242h30.333c3.141,0,5.688,2.546,5.688,5.688v37.383
		c0,3.141-2.546,5.688-5.688,5.688h-30.333c-3.141,0-5.687-2.546-5.687-5.688v-37.383
		C307.292,479.788,309.838,477.242,312.979,477.242z"/>
	<path fill-rule="evenodd" clip-rule="evenodd" fill="#FFFFFF" d="M471.979,435h30.333c3.141,0,5.688,2.546,5.688,5.687v24.35
		c0,3.141-2.546,5.688-5.688,5.688h-30.333c-3.141,0-5.687-2.546-5.687-5.688v-24.35C466.292,437.546,468.838,435,471.979,435z"/>
	<path fill-rule="evenodd" clip-rule="evenodd" fill="#FFFFFF" d="M471.979,477.242h30.333c3.141,0,5.688,2.546,5.688,5.688v37.383
		c0,3.141-2.546,5.688-5.688,5.688h-30.333c-3.141,0-5.687-2.546-5.687-5.688v-37.383
		C466.292,479.788,468.838,477.242,471.979,477.242z"/>
	<path fill-rule="evenodd" clip-rule="evenodd" fill="#FFFFFF" d="M471.979,274h30.333c3.141,0,5.688,2.546,5.688,5.688v24.35
		c0,3.141-2.546,5.687-5.688,5.687h-30.333c-3.141,0-5.687-2.546-5.687-5.687v-24.35C466.292,276.546,468.838,274,471.979,274z"/>
	<path fill-rule="evenodd" clip-rule="evenodd" fill="#FFFFFF" d="M422.688,435h30.333c3.141,0,5.688,2.546,5.688,5.687v79.625
		c0,3.141-2.546,5.688-5.688,5.688h-30.333c-3.141,0-5.688-2.546-5.688-5.688v-79.625C417,437.546,419.546,435,422.688,435z"/>
</g>
<g id="prop">
	<path fill-rule="evenodd" clip-rule="evenodd" fill="#7581CE" d="M120.057,114.362V114h-17.369c-3.141,0-5.688,2.546-5.688,5.688
		v79.625c0,3.141,2.546,5.688,5.688,5.688h17.188c-0.986-4.328-6.353-23.926-22.687-23.926
		C120.083,181.074,120.057,114.362,120.057,114.362z"/>
	<path fill-rule="evenodd" clip-rule="evenodd" fill="#7581CE" d="M262.688,114c-3.141,0-5.688,2.546-5.688,5.688v79.625
		c0,3.141,2.546,5.688,5.688,5.688h0.589c20.178-8.532,22.334-79.609,22.549-91H262.688z"/>
	<path fill-rule="evenodd" clip-rule="evenodd" fill="#7581CE" d="M417.34,117.767v83.466c0.789,2.194,2.882,3.767,5.348,3.767
		h6.086v-90.638h-8.069C419.14,114.945,417.905,116.194,417.34,117.767z"/>
	<path fill-rule="evenodd" clip-rule="evenodd" fill="#7581CE" d="M497.377,149.725h4.935c3.141,0,5.687-2.546,5.687-5.688v-24.35
		c0-2.443-1.543-4.52-3.705-5.325h-6.918V149.725z"/>
	<path fill-rule="evenodd" clip-rule="evenodd" fill="#7581CE" d="M502.313,156.242h-4.935V205h4.935
		c3.141,0,5.687-2.546,5.687-5.688v-37.383C508,158.788,505.454,156.242,502.313,156.242z"/>
	<path fill-rule="evenodd" clip-rule="evenodd" fill="#7581CE" d="M97.34,438.781v83.466c0.789,2.194,2.882,3.767,5.348,3.767h6.086
		v-90.638h-8.069C99.14,435.96,97.905,437.208,97.34,438.781z"/>
	<path fill-rule="evenodd" clip-rule="evenodd" fill="#7581CE" d="M177.377,470.739h4.935c3.141,0,5.687-2.546,5.687-5.688v-24.35
		c0-2.443-1.543-4.52-3.705-5.325h-6.918V470.739z"/>
	<path fill-rule="evenodd" clip-rule="evenodd" fill="#7581CE" d="M182.313,477.256h-4.935v48.758h4.935
		c3.141,0,5.687-2.546,5.687-5.688v-37.383C188,479.802,185.454,477.256,182.313,477.256z"/>
	<g id="lamp_1_">
		
			<line fill-rule="evenodd" clip-rule="evenodd" fill="none" stroke="#7581CE" stroke-width="2" stroke-miterlimit="10" x1="278.5" y1="274" x2="278.5" y2="285.455"/>
		<path fill-rule="evenodd" clip-rule="evenodd" fill="#5053AB" d="M278.5,285.455c5.247,0,9.5,4.274,9.5,9.545
			c-6.477,0-11.974,0-19,0C269,289.728,273.253,285.455,278.5,285.455z"/>
	</g>
	<g id="lamp_copy">
		
			<line fill-rule="evenodd" clip-rule="evenodd" fill="none" stroke="#7581CE" stroke-width="2" stroke-miterlimit="10" x1="328.34" y1="114" x2="328.34" y2="125.455"/>
		<path fill-rule="evenodd" clip-rule="evenodd" fill="#5053AB" d="M328.34,125.455c5.247,0,9.5,4.274,9.5,9.545
			c-6.477,0-11.974,0-19,0C318.84,129.728,323.093,125.455,328.34,125.455z"/>
	</g>
	<g id="pot_copy_1_">
		<path fill-rule="evenodd" clip-rule="evenodd" fill="none" stroke="#7581CE" stroke-width="2" stroke-miterlimit="10" d="
			M326.777,346.5c0-9.441-3.733-12.95-3.733-12.95"/>
		<polygon fill-rule="evenodd" clip-rule="evenodd" fill="#5053AB" points="334.244,346.5 315.577,346.5 319.31,365 330.51,365 		
			"/>
		<path fill-rule="evenodd" clip-rule="evenodd" fill="#5053AB" d="M324.045,334.375c0,0-4.058,2.919-7.246,1.787
			c-3.148-1.118-5.426-6.288-5.426-6.288s6.854-3.082,9.057-2.233C322.634,328.489,323.51,331.332,324.045,334.375z"/>
		<path fill-rule="evenodd" clip-rule="evenodd" fill="#5053AB" d="M326.777,342.021c0,0,1.006-5.933,3.903-7.67
			c2.861-1.715,8.345-0.206,8.345-0.206s-0.889,5.914-3.297,7.284C333.32,342.799,329.497,343.53,326.777,342.021z"/>
	</g>
	<g id="pot_copy_2_1_">
		<path fill-rule="evenodd" clip-rule="evenodd" fill="none" stroke="#7581CE" stroke-width="2" stroke-miterlimit="10" d="
			M166.067,186.5c0-9.441,3.733-12.95,3.733-12.95"/>
		<polygon fill-rule="evenodd" clip-rule="evenodd" fill="#5053AB" points="158.6,186.5 177.267,186.5 173.533,205 162.333,205 		
			"/>
		<path fill-rule="evenodd" clip-rule="evenodd" fill="#5053AB" d="M168.187,175.695c0,0,4.058,2.919,7.246,1.787
			c3.148-1.118,5.426-6.288,5.426-6.288s-6.854-3.082-9.057-2.233C169.598,169.81,168.722,172.653,168.187,175.695z"/>
		<path fill-rule="evenodd" clip-rule="evenodd" fill="#5053AB" d="M166.363,182.518c0,0-0.275-4.962-3.172-6.699
			c-2.861-1.715-8.345-0.206-8.345-0.206s1.911,7.215,3.965,8.374C160.865,185.146,163.643,184.026,166.363,182.518z"/>
	</g>
	<g id="pot_copy_3">
		<path fill-rule="evenodd" clip-rule="evenodd" fill="none" stroke="#7581CE" stroke-width="2" stroke-miterlimit="10" d="
			M280.165,507.567c0-9.441,3.733-12.95,3.733-12.95"/>
		<polygon fill-rule="evenodd" clip-rule="evenodd" fill="#5053AB" points="272.699,507.567 291.365,507.567 287.632,526.067 
			276.432,526.067 		"/>
		<path fill-rule="evenodd" clip-rule="evenodd" fill="#5053AB" d="M282.286,496.762c0,0,4.058,2.919,7.246,1.787
			c3.148-1.118,5.426-6.288,5.426-6.288s-6.854-3.082-9.057-2.233C283.697,490.877,282.821,493.72,282.286,496.762z"/>
		<path fill-rule="evenodd" clip-rule="evenodd" fill="#5053AB" d="M280.462,503.585c0,0-0.275-4.962-3.172-6.699
			c-2.861-1.715-8.345-0.206-8.345-0.206s1.911,7.215,3.965,8.374S277.742,505.093,280.462,503.585z"/>
	</g>
	<path fill-rule="evenodd" clip-rule="evenodd" fill="#7581CE" d="M442.113,274.47V274h-19.426c-3.141,0-5.688,2.546-5.688,5.688
		v79.625c0,3.141,2.546,5.688,5.688,5.688h19.22c-1.051-4.542-6.465-23.819-22.662-23.819
		C442.139,341.181,442.113,274.47,442.113,274.47z"/>
	<path fill-rule="evenodd" clip-rule="evenodd" fill="#7581CE" d="M484.741,309.725h17.571c3.141,0,5.687-2.546,5.687-5.688v-24.35
		c0-3.141-2.546-5.688-5.687-5.688h-20.18v3.812C482.132,277.812,482.127,293.541,484.741,309.725z"/>
	<path fill-rule="evenodd" clip-rule="evenodd" fill="#7581CE" d="M502.313,316.242h-16.366
		c3.115,14.825,8.772,28.282,19.054,28.282c-13.497,0-19.503,13.383-21.741,20.477h19.053c3.141,0,5.687-2.546,5.687-5.688v-37.383
		C508,318.788,505.454,316.242,502.313,316.242z"/>
	<path fill-rule="evenodd" clip-rule="evenodd" fill="#7581CE" d="M283.862,435h-20.174c-3.141,0-5.688,2.546-5.688,5.688v79.625
		c0,3.141,2.546,5.688,5.688,5.688h20.256v-3.745c0,0-4.509-24.779-22.868-24.779C280.457,497.477,283.411,449.672,283.862,435z"/>
	<g id="cutrt-up_1_">
		<rect x="417" y="446.4" fill-rule="evenodd" clip-rule="evenodd" fill="#7581CE" width="41.708" height="12"/>
		<rect x="417" y="469.4" fill-rule="evenodd" clip-rule="evenodd" fill="#7581CE" width="41.708" height="12"/>
		<path fill-rule="evenodd" clip-rule="evenodd" fill="#7581CE" d="M502.313,435h-30.333c-3.141,0-5.688,2.546-5.688,5.688V446H508
			v-5.313C508,437.546,505.454,435,502.313,435z"/>
		<path fill-rule="evenodd" clip-rule="evenodd" fill="#5053AB" d="M453.021,435h-30.333c-3.141,0-5.688,2.546-5.688,5.688v5.712
			h41.708v-5.712C458.708,437.546,456.162,435,453.021,435z"/>
		<rect x="417" y="458.4" fill-rule="evenodd" clip-rule="evenodd" fill="#5053AB" width="41.708" height="11"/>
		<rect x="417" y="481.4" fill-rule="evenodd" clip-rule="evenodd" fill="#5053AB" width="41.708" height="11"/>
		<rect x="466.292" y="445.835" fill-rule="evenodd" clip-rule="evenodd" fill="#5053AB" width="41.708" height="12"/>
	</g>
	<g id="cutrt-up_copy">
		<rect x="146.292" y="285.4" fill-rule="evenodd" clip-rule="evenodd" fill="#7581CE" width="41.708" height="12"/>
		<path fill-rule="evenodd" clip-rule="evenodd" fill="#7581CE" d="M102.687,274h30.333c3.141,0,5.688,2.546,5.688,5.688V285H97
			v-5.313C97,276.546,99.546,274,102.687,274z"/>
		<path fill-rule="evenodd" clip-rule="evenodd" fill="#5053AB" d="M151.979,274h30.333c3.141,0,5.688,2.546,5.688,5.688v5.712
			h-41.708v-5.712C146.292,276.546,148.838,274,151.979,274z"/>
		<rect x="97" y="284.835" fill-rule="evenodd" clip-rule="evenodd" fill="#5053AB" width="41.708" height="12"/>
	</g>
</g>
<g id="roof">
	<polygon fill-rule="evenodd" clip-rule="evenodd" fill="#5053AB" points="112.434,0 160.075,19.06 64.792,19.06 	"/>
	<polygon fill-rule="evenodd" clip-rule="evenodd" fill="#5053AB" points="0,79.994 606,79.994 303,0 	"/>
</g>
</svg>
