<?xml version="1.0" encoding="utf-8"?>
<!-- Generator: Adobe Illustrator 23.0.1, SVG Export Plug-In . SVG Version: 6.00 Build 0)  -->
<svg version="1.1" xmlns="http://www.w3.org/2000/svg" xmlns:xlink="http://www.w3.org/1999/xlink" x="0px" y="0px"
	 viewBox="0 0 544.139 495.388" enable-background="new 0 0 544.139 495.388" xml:space="preserve">
<g id="Rectangle_3_1_" enable-background="new    ">
	<path fill="#DEE4F5" d="M510.131,225.969h-67.445V25.507C442.686,11.42,431.266,0,417.179,0H264.168
		c-14.087,0-25.507,11.42-25.507,25.507v200.462H171.07v-96.408h-64.792v96.408H34.009l-0.147,269.41h476.415L510.131,225.969z"/>
</g>
<g id="Rectangle_7_1_" enable-background="new    ">
	<path fill-rule="evenodd" clip-rule="evenodd" fill="#FFFFFF" d="M428.92,293.417H301.974c-7.043,0-12.753,5.71-12.753,12.753
		v189.209h152.453V306.17C441.673,299.126,435.964,293.417,428.92,293.417z"/>
</g>
<g id="Rounded_Rectangle_3_1_" enable-background="new    ">
	<path fill="#7581CE" d="M399.749,415.356h-89.566c-6.315,0-11.434,5.119-11.434,11.434v68.589h112.434V426.79
		C411.183,420.475,406.064,415.356,399.749,415.356z"/>
	<path fill="#7581CE" d="M401.656,382.966h-32.4c-5.261,0-9.527,4.265-9.527,9.527s4.265,9.526,9.527,9.526h32.4
		c5.261,0,9.527-4.265,9.527-9.526S406.918,382.966,401.656,382.966z"/>
	<path fill="#7581CE" d="M518.633,157.886H25.507C11.42,157.886,0,177.827,0,191.927v34.041c0,0,0,21.276,34.009,21.276
		c34.009,0,34.009-21.276,34.009-21.276s0,21.276,34.009,21.276s34.009-21.276,34.009-21.276s0,21.276,34.009,21.276
		c34.009,0,34.009-21.276,34.009-21.276s0,21.276,34.009,21.276s34.009-21.276,34.009-21.276s0,21.276,34.009,21.276
		c34.009,0,34.009-21.276,34.009-21.276s0,21.276,34.009,21.276c34.009,0,34.009-21.276,34.009-21.276s0,21.276,34.009,21.276
		c34.009,0,34.009-21.276,34.009-21.276s0,21.276,34.009,21.276s34.009-21.276,34.009-21.276v-34.041
		C544.139,177.827,532.72,157.886,518.633,157.886z"/>
</g>
<g id="Rectangle_9_copy_3_1_" enable-background="new    ">
	<path fill="#5053AB" d="M68.017,225.969c0,0,0,21.276,34.009,21.276c30.153,0,33.569-16.714,33.957-20.506v-68.853H67.896v69.417
		C68.016,226.467,68.017,225.969,68.017,225.969z"/>
	<path fill="#5053AB" d="M374.096,247.245c34.009,0,34.009-21.276,34.009-21.276s0.003,0.425,0.096,1.137v-69.219h-68.087v68.58
		C340.367,229.656,343.17,247.245,374.096,247.245z"/>
	<path fill="#5053AB" d="M518.633,157.886h-42.607v69.219c0.092-0.712,0.096-1.137,0.096-1.137s0,21.276,34.009,21.276
		s34.009-21.276,34.009-21.276v-34.041C544.139,177.827,532.72,157.886,518.633,157.886z"/>
	<path fill="#5053AB" d="M203.939,157.886v69.351c0.11-0.794,0.113-1.268,0.113-1.268s0,21.276,34.009,21.276
		s34.009-21.276,34.009-21.276v-68.083H203.939z"/>
	<polygon fill="#5053AB" points="138.673,110.508 91.032,129.561 186.315,129.561 	"/>
	<path fill="#5053AB" d="M199.655,314.613h-93.377c-6.315,0-11.434,5.119-11.434,11.434v169.094h116.245V326.047
		C211.089,319.732,205.969,314.613,199.655,314.613z"/>
	<path fill-rule="evenodd" clip-rule="evenodd" fill="#5053AB" d="M340.673,443.936h-41.925v51.443h93.377v0.01
		C392.126,466.972,369.09,443.936,340.673,443.936z"/>
	<rect x="380.692" y="402.019" fill="#5053AB" width="11.434" height="13.337"/>
	<path fill="#5053AB" d="M396.592,62.376h-25.694l-23.553-35.329c-1.071-1.606-2.676-2.141-4.282-2.141
		c-1.606,0-3.212,0.535-4.282,2.141l-23.553,35.329h-25.694c-2.676,0-5.353,2.141-5.353,5.353c0,0.535,0,1.071,0,1.606
		l13.382,49.782c1.071,4.283,5.353,8.029,10.171,8.029h69.588c4.817,0,9.1-3.212,10.17-8.029l14.453-49.782v-1.606
		C401.945,64.517,399.268,62.376,396.592,62.376z M323.792,115.905h-16.059l-4.818-18.735h20.877V115.905z M324.327,91.817h-22.482
		l-5.353-18.735h27.835V91.817z M355.374,115.905H329.68V97.17h25.694V115.905z M355.374,91.817H329.68V73.081h25.694V91.817z
		 M328.074,62.376l14.988-22.482l14.988,22.482H328.074z M377.857,115.905h-17.13V97.17h22.482L377.857,115.905z M384.28,91.817
		h-23.553V73.081h28.906L384.28,91.817z"/>
</g>
<g id="Rounded_Rectangle_2_1_">
	<path fill="#DEE4F5" d="M183.456,382.966c-1.579,0-2.858,1.28-2.858,2.859v55.253c0,1.579,1.28,2.859,2.858,2.859
		s2.858-1.28,2.858-2.859v-55.253C186.315,384.246,185.035,382.966,183.456,382.966z"/>
</g>
</svg>
