<?xml version="1.0" encoding="utf-8"?>
<!-- Generator: Adobe Illustrator 23.0.1, SVG Export Plug-In . SVG Version: 6.00 Build 0)  -->
<svg version="1.1" xmlns="http://www.w3.org/2000/svg" xmlns:xlink="http://www.w3.org/1999/xlink" x="0px" y="0px"
	 viewBox="0 0 1920 520" style="enable-background:new 0 0 1920 520;" xml:space="preserve">
<style type="text/css">
	.st0 {
		enable-background:new;
	}

	.st1 {
		fill-rule:evenodd;
		clip-rule:evenodd;
		fill:none;
		stroke:#E1E4EE;
		stroke-width:3;
		stroke-miterlimit:10;
		
		stroke-dasharray: 1000;
		stroke-dashoffset: 1000;
		animation: 2s ease-in-out forwards dash;
	}

	.st2, .st4, .st5 {
		fill-rule:evenodd;
		clip-rule:evenodd;
		fill:none;
		stroke:#E1E4EE;
		stroke-width:3;
		stroke-linejoin:round;
		stroke-miterlimit:10;

		stroke-dasharray: 1000;
		stroke-dashoffset: 1000;
		animation: 2s ease-in-out forwards dash;
	}

	@keyframes dash {
		to {
			stroke-dashoffset: 0;
		}
	}

	.st3 {
		fill-rule:evenodd;
		clip-rule:evenodd;
		fill:#E1E4EE;
	}
	
	.st6 {
		fill:#E1E4EE;

	}

	.st7 {

		fill:none;
		stroke:#E1E4EE;
		stroke-width:32;


		stroke-dasharray: 1000;
		stroke-dashoffset: 1000;
		animation: 2s ease-in-out 1s forwards dash;
	}

	.st8 {
		fill:none;
		stroke:#E1E4EE;
		stroke-width:3;
		stroke-miterlimit:10;
	}
</style>
<g id="Rectangle_2_copy_2_1_" class="st0">
	<path class="st1" d="M439.5,174H436c-6.6,0-12-5.4-12-12v-46c0-6.6,5.4-12,12-12h3.5"/>
	<path class="st1" d="M1842,367v8c0,6.6-5.4,12-12,12h-46c-6.6,0-12-5.4-12-12v-8"/>
</g>
<g id="bg-graphics_1_">
	<g id="ventilator_1_">
	</g>
	<path class="st2" d="M543.5,19c-44.2,0-80,35.8-80,80h-24v80h24h24h56c44.2,0,80-35.8,80-80C623.5,54.8,587.7,19,543.5,19z"/>
	<ellipse transform="matrix(0.7071 -0.7071 0.7071 0.7071 89.1905 413.325)" class="st1" cx="543.5" cy="99" rx="50" ry="50"/>
	<path class="st1" d="M543.5,99c0,0-34-10.4-46-14L543.5,99z M520.5,57c6.5,12.1,18.2,33,23,42L520.5,57z"/>
	<path class="st1" d="M543.5,99l-16,45L543.5,99z M543.5,99l-43,23L543.5,99z"/>
	<path class="st1" d="M543.5,99l46,17.2L543.5,99z M562.5,144l-19-45L562.5,144z"/>
	<path class="st1" d="M557.5,53l-14,46L557.5,53z M586.5,77l-43,22L586.5,77z"/>
	<circle class="st3" cx="543.5" cy="99" r="8"/>
</g>
<g id="Layer_16">
	<path class="st4" d="M502.4,381.9L502.4,381.9c0-1.7,1.4-3.1,3.1-3.1h74.5c1.7,0,3.1,1.4,3.1,3.1v0"/>
	<path class="st4" d="M502.4,395.7L502.4,395.7c0-1.7,1.4-3.1,3.1-3.1h74.5c1.7,0,3.1,1.4,3.1,3.1v0"/>
	<path class="st4" d="M502.4,410.2L502.4,410.2c0-1.7,1.4-3.1,3.1-3.1h74.6c1.7,0,3.1,1.4,3.1,3.1l0,0"/>
	<path class="st4" d="M502.4,424L502.4,424c0-1.7,1.4-3.1,3.1-3.1h74.5c1.7,0,3.1,1.4,3.1,3.1v0"/>
	<path class="st4" d="M502.4,438.5L502.4,438.5c0-1.7,1.4-3.1,3.1-3.1h74.5c1.7,0,3.1,1.4,3.1,3.1v0"/>
	<path class="st1" d="M495.3,363.6h96.4c3.3,0,6,2.7,6,6v79.8c0,3.3-2.7,6-6,6h-96.4c-3.3,0-6-2.7-6-6v-79.8
		C489.3,366.3,492,363.6,495.3,363.6z"/>
	<path class="st1" d="M462,334h160c3.3,0,6,2.7,6,6v142c0,3.3-2.7,6-6,6H462c-3.3,0-6-2.7-6-6V340C456,336.7,458.7,334,462,334z"/>
</g>
<g id="Layer_15">
	<path class="st1" d="M1299,253.5h221c3.3,0,6,2.7,6,6v221c0,3.3-2.7,6-6,6h-221c-3.3,0-6-2.7-6-6v-221
		C1293,256.2,1295.7,253.5,1299,253.5z"/>
	<line class="st1" x1="1410" y1="253" x2="1410" y2="487"/>
	<line class="st1" x1="1292" y1="370" x2="1527" y2="370"/>
	<line class="st1" x1="1352" y1="370" x2="1352" y2="486"/>
	<path class="st1" d="M1351,280c-16,0-29,13-29,29c0,16,13,29,29,29s29-13,29-29C1380,293,1367,280,1351,280z M1351,331
		c-12.2,0-22-9.8-22-22s9.8-22,22-22s22,9.8,22,22S1363.2,331,1351,331z"/>
	<path class="st1" d="M1485,283c-16,0-29,13-29,29c0,16,13,29,29,29c16,0,29-13,29-29C1514,296,1501,283,1485,283z M1485,334
		c-12.2,0-22-9.8-22-22c0-12.2,9.8-22,22-22s22,9.8,22,22C1507,324.2,1497.2,334,1485,334z"/>
	<line class="st1" x1="1441" y1="253" x2="1441" y2="370"/>
</g>
<g id="Layer_14">
	<path class="st1" d="M157,237c-24.3,0-44,19.7-44,44s19.7,44,44,44c24.3,0,44-19.7,44-44S181.3,237,157,237z M157,316
		c-19.3,0-35-15.7-35-35c0-19.3,15.7-35,35-35c19.3,0,35,15.7,35,35C192,300.3,176.3,316,157,316z"/>
	<path class="st1" d="M188,374c-24.3,0-44,19.7-44,44c0,24.3,19.7,44,44,44c24.3,0,44-19.7,44-44C232,393.7,212.3,374,188,374z
		 M188,453c-19.3,0-35-15.7-35-35s15.7-35,35-35c19.3,0,35,15.7,35,35S207.3,453,188,453z"/>
	<line class="st1" x1="68" y1="349.5" x2="245" y2="349.5"/>
	<line class="st1" x1="130" y1="350" x2="130" y2="486.5"/>
	<path class="st1" d="M74,213h165c3.3,0,6,2.7,6,6v261c0,3.3-2.7,6-6,6H74c-3.3,0-6-2.7-6-6V219C68,215.7,70.7,213,74,213z"/>
</g>
<g id="Rectangle_3_1_" class="st0">
	<path class="st5" d="M1920,207c-21.3,0-56.9,0-95,0"/>
	<path class="st5" d="M1709.9,207c-56.6,0-103.9,0-103.9,0l-27,15V99l27,15h314"/>
	<circle class="st1" cx="1848" cy="161" r="23"/>
	<circle class="st1" cx="1674" cy="161" r="23"/>
	<line class="st1" x1="1767" y1="114" x2="1767" y2="183"/>
	<line class="st1" x1="1606" y1="114" x2="1606" y2="207"/>
</g>
<g id="provod3_1_">
	<g>
		<path class="st6" d="M1611,415c1.1,0,2,0.9,2,2v36c0,1.1-0.9,2-2,2s-2-0.9-2-2v-36C1609,415.9,1609.9,415,1611,415 M1611,412
			c-2.8,0-5,2.2-5,5v36c0,2.8,2.2,5,5,5s5-2.2,5-5v-36C1616,414.2,1613.8,412,1611,412L1611,412z"/>
	</g>
	<g>
		<path class="st6" d="M1753,415c1.1,0,2,0.9,2,2v36c0,1.1-0.9,2-2,2s-2-0.9-2-2v-36C1751,415.9,1751.9,415,1753,415 M1753,412
			c-2.8,0-5,2.2-5,5v36c0,2.8,2.2,5,5,5s5-2.2,5-5v-36C1758,414.2,1755.8,412,1753,412L1753,412z"/>
	</g>
	<path class="st7" d="M1807,387c0,26.5-21.5,48-48,48c0,0-1.1,0-3.1,0 M1750.1,435c-22.1,0-81.6,0-136.1,0 M1608,435
		c-53.2,0-82,0-82,0"/>
</g>
<g id="zont_1_">
	<path class="st1" d="M1392,111V74h109V26h-118.3c-21.4,0-38.7,17.3-38.7,38.7V74v37"/>
	<line class="st1" x1="1392" y1="73" x2="1392" y2="27"/>
	<polygon class="st2" points="1392,111 1453,152 1284,151.6 1344,111 	"/>
	<g>
		<path class="st6" d="M1598,25c1.1,0,2,0.9,2,2v34c0,1.1-0.9,2-2,2s-2-0.9-2-2V27C1596,25.9,1596.9,25,1598,25 M1598,22
			c-2.8,0-5,2.2-5,5v34c0,2.8,2.2,5,5,5c2.8,0,5-2.2,5-5V27C1603,24.2,1600.8,22,1598,22L1598,22z"/>
	</g>
	<path class="st7" d="M1647,0c0,24.3-19.7,44-44,44c0,0-0.7,0-1.9,0 M1594.9,44c-24.1,0-93.9,0-93.9,0"/>
</g>
<g id="provod2_1_">
	<path class="st7" d="M246,408c0,0,31.3,0,44,0 M295,408c0.6,0,1,0,1,0c17.7,0,32-14.3,32-32c0,0,0-0.4,0-1.2 M328,368.7
		c0-7.9,0-21.1,0-34.6 M328,328.2c0-12.7,0-24.9,0-32.2 M328,290.9c0-1.2,0-1.9,0-1.9c0-18.2,14.8-33,33-33c0,0-0.3,0,1.1,0
		 M367.1,256c11.6,0,38,0,65,0 M438.1,256c26.6,0,52.7,0,64.9,0 M508.9,256c1.3,0,1.1,0,1.1,0c18.2,0,33,14.8,33,33c0,0,0,0.1,0,2
		 M543,297c0,8.6,0,21.2,0,37"/>
	<g>
		<path class="st6" d="M560,292c1.1,0,2,0.9,2,2s-0.9,2-2,2h-34c-1.1,0-2-0.9-2-2s0.9-2,2-2H560 M560,289h-34c-2.8,0-5,2.2-5,5
			s2.2,5,5,5h34c2.8,0,5-2.2,5-5S562.8,289,560,289L560,289z"/>
	</g>
	<g>
		<path class="st6" d="M345,291c1.1,0,2,0.9,2,2s-0.9,2-2,2h-34c-1.1,0-2-0.9-2-2s0.9-2,2-2H345 M345,288h-34c-2.8,0-5,2.2-5,5
			s2.2,5,5,5h34c2.8,0,5-2.2,5-5S347.8,288,345,288L345,288z"/>
	</g>
	<g>
		<path class="st6" d="M345,329c1.1,0,2,0.9,2,2v0c0,1.1-0.9,2-2,2h-34c-1.1,0-2-0.9-2-2v0c0-1.1,0.9-2,2-2H345 M345,326h-34
			c-2.8,0-5,2.2-5,5s2.2,5,5,5h34c2.8,0,5-2.2,5-5C350,328.2,347.8,326,345,326L345,326z"/>
	</g>
	<g>
		<path class="st6" d="M506,237c1.1,0,2,0.9,2,2v34c0,1.1-0.9,2-2,2c-1.1,0-2-0.9-2-2v-34C504,237.9,504.9,237,506,237 M506,234
			c-2.8,0-5,2.2-5,5v34c0,2.8,2.2,5,5,5c2.8,0,5-2.2,5-5v-34C511,236.2,508.8,234,506,234L506,234z"/>
	</g>
	<g>
		<path class="st6" d="M365,237c1.1,0,2,0.9,2,2v34c0,1.1-0.9,2-2,2c-1.1,0-2-0.9-2-2v-34C363,237.9,363.9,237,365,237 M365,234
			c-2.8,0-5,2.2-5,5v34c0,2.8,2.2,5,5,5c2.8,0,5-2.2,5-5v-34C370,236.2,367.8,234,365,234L365,234z"/>
	</g>
	<g>
		<path class="st6" d="M435,237c1.1,0,2,0.9,2,2v34c0,1.1-0.9,2-2,2s-2-0.9-2-2v-34C433,237.9,433.9,237,435,237 M435,234
			c-2.8,0-5,2.2-5,5v34c0,2.8,2.2,5,5,5s5-2.2,5-5v-34C440,236.2,437.8,234,435,234L435,234z"/>
	</g>
	<g>
		<path class="st6" d="M345,370c1.1,0,2,0.9,2,2s-0.9,2-2,2h-34c-1.1,0-2-0.9-2-2s0.9-2,2-2H345 M345,367h-34c-2.8,0-5,2.2-5,5
			s2.2,5,5,5h34c2.8,0,5-2.2,5-5S347.8,367,345,367L345,367z"/>
	</g>
	<g>
		<path class="st6" d="M293,389c1.1,0,2,0.9,2,2v33c0,1.1-0.9,2-2,2s-2-0.9-2-2v-33C291,389.9,291.9,389,293,389 M293,386
			c-2.8,0-5,2.2-5,5v33c0,2.8,2.2,5,5,5c2.8,0,5-2.2,5-5v-33C298,388.2,295.8,386,293,386L293,386z"/>
	</g>
</g>
<g id="provod1_1_">
	<path class="st7" d="M156,211.5c0-7,0-13.2,0-16.6 M156.1,188.9c1.6-26.4,22.8-47.5,49.2-48.8 M210.9,140c7.3,0,27.8,0,54,0
		 M322.7,140c16.2,0,32.7,0,48.5,0 M377.1,140c16.6,0,32.1,0,45.3,0"/>
	<g>
		<path class="st6" d="M173,190c1.1,0,2,0.9,2,2c0,1.1-0.9,2-2,2h-34c-1.1,0-2-0.9-2-2c0-1.1,0.9-2,2-2H173 M173,187h-34
			c-2.8,0-5,2.2-5,5s2.2,5,5,5h34c2.8,0,5-2.2,5-5S175.8,187,173,187L173,187z"/>
	</g>
	<g>
		<path class="st6" d="M318,94c1.7,0,3,1.3,3,3v84c0,1.7-1.3,3-3,3h-48c-1.7,0-3-1.3-3-3V97c0-1.7,1.3-3,3-3H318 M318,91h-48
			c-3.3,0-6,2.7-6,6v84c0,3.3,2.7,6,6,6h48c3.3,0,6-2.7,6-6V97C324,93.7,321.3,91,318,91L318,91z"/>
	</g>
	<g>
		<path class="st6" d="M208,121c1.1,0,2,0.9,2,2v34c0,1.1-0.9,2-2,2s-2-0.9-2-2v-34C206,121.9,206.9,121,208,121 M208,118
			c-2.8,0-5,2.2-5,5v34c0,2.8,2.2,5,5,5c2.8,0,5-2.2,5-5v-34C213,120.2,210.8,118,208,118L208,118z"/>
	</g>
	<g>
		<path class="st6" d="M374,120c1.1,0,2,0.9,2,2v36c0,1.1-0.9,2-2,2s-2-0.9-2-2v-36C372,120.9,372.9,120,374,120 M374,117
			c-2.8,0-5,2.2-5,5v36c0,2.8,2.2,5,5,5c2.8,0,5-2.2,5-5v-36C379,119.2,376.8,117,374,117L374,117z"/>
	</g>
</g>
<g id="ventilator_copy_1_">
	<path class="st2" d="M1767,183c-44.2,0-80,35.8-80,80c0,44.2,35.8,80,80,80v24h80v-24v-24v-56C1847,218.8,1811.2,183,1767,183z"/>
	<circle class="st1" cx="1767" cy="263" r="50"/>
	<path class="st1" d="M1767,263c0,0-10.4,34-14,46L1767,263z M1725,286c12.1-6.5,33-18.2,42-23L1725,286z"/>
	<path class="st1" d="M1767,263l45,16L1767,263z M1767,263l23,43L1767,263z"/>
	<path class="st1" d="M1767,263l17.2-46L1767,263z M1812,244l-45,19L1812,244z"/>
	<path class="st1" d="M1721,249l46,14L1721,249z M1745,220l22,43L1745,220z"/>
	<circle class="st3" cx="1767" cy="263" r="8"/>
</g>
<g id="truba1_1_">
	<polyline class="st5" points="127.5,0 127.5,90.5 142.4,117.5 19.6,117.5 34.5,90.5 34.5,0 	"/>
	<ellipse class="st1" cx="81.5" cy="52.5" rx="23" ry="23"/>
	<path class="st4" d="M100.8-0.1c-4.1,6.4-11.2,10.6-19.3,10.6c-8.1,0-15.3-4.2-19.3-10.6"/>
	<line class="st8" x1="34.5" y1="90.5" x2="127.5" y2="90.5"/>
</g>
</svg>
