<?xml version="1.0" encoding="utf-8"?>
<!-- Generator: Adobe Illustrator 23.0.1, SVG Export Plug-In . SVG Version: 6.00 Build 0)  -->
<svg version="1.1" id="Layer_1" xmlns="http://www.w3.org/2000/svg" xmlns:xlink="http://www.w3.org/1999/xlink" x="0px" y="0px"
	 viewBox="0 0 16 15.2" style="enable-background:new 0 0 16 15.2;" xml:space="preserve">
<path fill="#fff" class="ic-next" d="M7.3,0.3L7.3,0.3c-0.4,0.4-0.4,1,0,1.4l4.9,4.9H1c-0.6,0-1,0.4-1,1v0c0,0.6,0.4,1,1,1h11.2l-4.9,4.9
	c-0.4,0.4-0.4,1,0,1.4l0,0c0.4,0.4,1,0.4,1.4,0L16,7.6L8.7,0.3C8.3-0.1,7.7-0.1,7.3,0.3z"/>
</svg>
