<svg width="304" height="380" viewBox="0 0 304 380" fill="none" xmlns="http://www.w3.org/2000/svg">
<path d="M285 229.425H208.992V115.245C208.992 107.378 202.612 101 194.742 101H109.257C101.387 101 95.0075 107.378 95.0075 115.245V229.425H68.957V175.542H32.7586V229.425H18.9999L18.9182 380H285.082L285 229.425Z" fill="#DEE4F5"/>
<path d="M289.75 191.373H14.2499C6.37969 191.373 0 202.518 0 210.399V229.425C0 229.425 0 241.316 18.9999 241.316C37.9999 241.316 37.9999 229.425 37.9999 229.425C37.9999 229.425 37.9999 241.316 56.9998 241.316C75.9997 241.316 75.9997 229.425 75.9997 229.425C75.9997 229.425 75.9997 241.316 94.9996 241.316C114 241.316 114 229.425 114 229.425C114 229.425 114 241.316 132.999 241.316C151.999 241.316 151.999 229.425 151.999 229.425C151.999 229.425 151.999 241.316 170.999 241.316C189.999 241.316 189.999 229.425 189.999 229.425C189.999 229.425 189.999 241.316 208.999 241.316C227.999 241.316 227.999 229.425 227.999 229.425C227.999 229.425 227.999 241.316 246.999 241.316C265.999 241.316 265.999 229.425 265.999 229.425C265.999 229.425 265.999 241.316 284.999 241.316C303.999 241.316 303.999 229.425 303.999 229.425V210.399C304 202.518 297.62 191.373 289.75 191.373Z" fill="#7581CE"/>
<path d="M190 229.425C190 229.425 190 241.317 209 241.317C225.984 241.317 227.785 231.822 227.976 229.805V191.374H189.951V230.026C189.998 229.648 190 229.425 190 229.425Z" fill="#5053AB"/>
<path d="M266 229.425C266 229.425 266 241.317 285 241.317C303.999 241.317 303.999 229.425 303.999 229.425V210.4C303.999 202.519 297.62 191.374 289.75 191.374H265.991V229.617C265.999 229.497 266 229.425 266 229.425Z" fill="#5053AB"/>
<path d="M113.975 191.373V229.811C113.998 229.568 114 229.425 114 229.425C114 229.425 114 241.317 133 241.317C152 241.317 152 229.425 152 229.425V191.373H113.975Z" fill="#5053AB"/>
<path d="M37.9998 229.425C37.9998 229.425 37.9998 241.317 56.9998 241.317C75.9997 241.317 75.9997 229.425 75.9997 229.425C75.9997 229.425 76.0008 229.629 76.0425 229.978V191.373H37.9993V229.455C37.9998 229.438 37.9998 229.425 37.9998 229.425Z" fill="#5053AB"/>
<path d="M111.543 278.969H59.375C55.8468 278.969 52.9868 281.828 52.9868 285.355V379.867H117.931V285.355C117.931 281.828 115.071 278.969 111.543 278.969Z" fill="#5053AB"/>
<path d="M50.8579 164.893L24.2412 175.542H77.474L50.8579 164.893Z" fill="#5053AB"/>
<path d="M104.623 348.054H90.7826C89.9004 348.054 89.1855 348.768 89.1855 349.65V349.652C89.1855 350.534 89.9004 351.248 90.7826 351.248H104.623C105.505 351.248 106.22 350.534 106.22 349.652V349.65C106.22 348.768 105.505 348.054 104.623 348.054Z" fill="#DEE4F5"/>
<path d="M141.987 149.731L149.763 141.957L130.473 122.701C126.186 126.987 126.186 133.936 130.473 138.249L141.987 149.731ZM160.617 144.759C164.821 146.709 170.73 145.335 175.098 140.968C180.347 135.721 181.363 128.195 177.324 124.157C173.312 120.146 165.783 121.135 160.507 126.382C156.138 130.749 154.764 136.655 156.715 140.858L129.896 167.668L133.771 171.541L152.704 152.67L171.609 171.569L175.483 167.695L156.578 148.796L160.617 144.759Z" fill="#5053AB"/>
<path d="M97.3644 293.312H73.6196C69.6848 293.312 66.4946 296.501 66.4946 300.435V324.259C66.4946 328.192 69.6848 331.381 73.6196 331.381H97.3644C101.299 331.381 104.489 328.192 104.489 324.259V300.435C104.489 296.5 101.3 293.312 97.3644 293.312Z" fill="white"/>
<path d="M239.862 267.488H168.641C164.706 267.488 161.516 270.677 161.516 274.611V355.473C161.516 359.407 164.706 362.596 168.641 362.596H239.862C243.797 362.596 246.987 359.407 246.987 355.473V274.611C246.987 270.677 243.797 267.488 239.862 267.488Z" fill="white"/>
<path d="M239.862 267.488H224.001C228.073 314.577 246.629 326.933 246.629 326.933C246.629 326.933 224.509 335.39 223.273 362.596H239.863C243.798 362.596 246.988 359.407 246.988 355.473V274.611C246.987 270.677 243.797 267.488 239.862 267.488Z" fill="#7581CE"/>
<path d="M163.496 325.267C168.45 320.593 181.15 305.15 184.454 267.489H168.64C164.705 267.489 161.515 270.678 161.515 274.612V324.286V326.923V354.944C161.515 359.17 164.705 362.596 168.64 362.596H185.192C184.168 338.711 169.01 328.285 163.496 325.267Z" fill="#7581CE"/>
<path d="M221.203 329.326H187.134C186.2 329.326 185.444 330.082 185.444 331.015C185.444 331.948 186.2 332.705 187.134 332.705H202.478V362.596H205.857V332.705H221.202C222.135 332.705 222.892 331.948 222.892 331.015C222.892 330.082 222.136 329.326 221.203 329.326Z" fill="#5053AB"/>
<path d="M210.154 317.246C210.154 310.061 213.008 307.391 213.008 307.391" stroke="#7581CE" stroke-miterlimit="10"/>
<path d="M204.446 317.246L207.3 331.324H215.863L218.717 317.246H204.446Z" fill="#5053AB"/>
<path d="M214.539 303.898C212.854 304.544 212.184 306.708 211.775 309.024C211.775 309.024 214.878 311.245 217.315 310.383C219.721 309.532 221.463 305.598 221.463 305.598C221.463 305.598 216.223 303.253 214.539 303.898Z" fill="#5053AB"/>
<path d="M207.967 308.001C205.78 306.696 201.587 307.844 201.587 307.844C201.587 307.844 202.781 312.993 204.976 313.666C207.172 314.339 208.313 314.247 210.392 313.099C210.392 313.099 210.182 309.323 207.967 308.001Z" fill="#5053AB"/>
</svg>
